…
1.  Подсчитать ИМТ (индекс массы тела) для всех персонажей. ИМТ
    подсчитать по формуле 𝐼 = 𝑚/ℎ^2, где 𝑚 – масса (weight), а ℎ – рост
    (height).

``` r
starwars %>% mutate(IMT = mass / height^2) %>% select(name,IMT)
```

    # A tibble: 87 × 2
       name                   IMT
       <chr>                <dbl>
     1 Luke Skywalker     0.00260
     2 C-3PO              0.00269
     3 R2-D2              0.00347
     4 Darth Vader        0.00333
     5 Leia Organa        0.00218
     6 Owen Lars          0.00379
     7 Beru Whitesun lars 0.00275
     8 R5-D4              0.00340
     9 Biggs Darklighter  0.00251
    10 Obi-Wan Kenobi     0.00232
    # ℹ 77 more rows

1.  Найти 10 самых “вытянутых” персонажей. “Вытянутость” оценить по
    отношению массы (mass) к росту(height) персонажей.

``` r
starwars %>% mutate(Вытянутость = mass/height) %>% arrange(desc(Вытянутость), by_group=TRUE) %>% select(name,Вытянутость)
```

    # A tibble: 87 × 2
       name                  Вытянутость
       <chr>                       <dbl>
     1 Jabba Desilijic Tiure       7.76 
     2 Grievous                    0.736
     3 IG-88                       0.7  
     4 Owen Lars                   0.674
     5 Darth Vader                 0.673
     6 Jek Tono Porkins            0.611
     7 Bossk                       0.595
     8 Tarfful                     0.581
     9 Dexter Jettster             0.515
    10 Chewbacca                   0.491
    # ℹ 77 more rows
…
    # A tibble: 1 × 2
      eye_color Количество
      <chr>          <int>
    1 brown             21

1.  Подсчитать среднюю длину имени в каждой расе вселенной Звездных
    войн.

``` r
starwars %>% group_by(species) %>% mutate(NL = nchar(name)) %>% summarise(nameleng = mean(NL)) %>% select(species, nameleng) %>% arrange(desc(nameleng))
```

    # A tibble: 38 × 2
       species   nameleng
       <chr>        <dbl>
     1 Ewok          21  
     2 Hutt          21  
     3 Geonosian     17  
     4 Besalisk      15  
     5 Mirialan      14  
     6 Toong         14  
     7 Aleena        13  
     8 Cerean        12  
     9 Gungan        11.7
    10 Human         11.3
    # ℹ 28 more rows
